…
Brysbaert, M., Warriner, A. B., & Kuperman, V. (2014). Concreteness ratings for 40 thousand generally known English word lemmas. *Behavior research methods*, 46(3), 904-911.

Kuperman, V., Stadthagen-Gonzalez, H., & Brysbaert, M. (2012). Age-of-acquisition ratings for 30,000 English words. *Behavior Research Methods*, 44(4), 978-990.

Nelson, D. L., McEvoy, C. L., & Schreiber, T. A. (2004). The University of South Florida free association, rhyme, and word fragment norms. *Behavior Research Methods, Instruments, & Computers*, 36(3), 402-407.

``` r
library(tidyverse)
devtools::install_github("jaytimm/lexvarsdatr")
library(lexvarsdatr)
```

``` r
getFamily(form="ism",type="SUF")
## # A tibble: 231 x 1
##                   fpos
##                  <chr>
##  1       absenteeism_N
##  2        absolutism_N
##  3       agnosticism_N
##  4        alcoholism_N
##  5          alpinism_N
##  6        amateurism_N
##  7       Americanism_N
##  8         anarchism_N
##  9       Anglicanism_N
## 10 Anglo-Catholicism_N
## # ... with 221 more rows
```
